1,CL,WSR,25.800
2,LB,WSR,14.000
3,PT,WSR,9.760
4,OS,WSR,8.900
5,CC,WSR,28.200
6,BC,WSR,20.700
7,BB,WSR,20.700
8,CT,WSR,28.000
9,OG,HSO,1.000
10,GG,HSO,1.000
11,BO,HSO,1.000
12,CP,WSR,9.760
13,CR,WSR,42.300
14,GL,WSR,44.200
15,AO,WSR,30.000
16,OH,WSR,36.000
17,FS,WSR,43.000
18,RG,WSR,49.500
19,EA,WSR,46.400
20,LP,WSR,47.300
21,NP,WSR,44.500
22,AV,WSR,44.300
23,MO,WSR,44.300
24,GJ,WSR,44.300
25,JF,WSR,44.100
26,KR,WSR,43.800
27,DL,WSR,43.000
28,RF,WSR,40.400
29,WS,WSR,40.200
30,LU,WSR,40.200
31,PW,WSR,40.200
32,PK,WSR,32.500
33,BT,WSR,40.200
34,PP,WSR,40.200
35,NG,HSO,0.900
36,FW,CSR,9.140
37,BS,WSR,7.720
38,AW,HSO,1.000
39,PU,HSO,1.000
40,VW,HSO,1.000
41,AL,WSR,26.800
42,BD,WSR,36.800
43,BJ,WSR,40.000
44,OL,WSR,27.400
45,BI,HSO,1.000
46,IW,HSO,1.000
47,MW,HSO,1.000
48,CH,WSR,29.500
49,ST,WSR,1.000
50,EL,HWU,3.600
51,ST,HSO,1.000
64,EC,HWU,3.600
65,OK,WSR,28.200
66,GK,WSR,28.200
67,BG,HSO,2.470
68,OB,WSR,25.800
69,AT,WSR,26.700
70,LN,WSR,11.900
71,SB,WSR,18.900
72,ZD,WSR,36.800
73,ZG,WSR,26.800
